<mxfile host="app.diagrams.net" modified="2023-04-14T12:07:08.182Z" agent="Mozilla/5.0 (Macintosh; Intel Mac OS X 10_15_7) AppleWebKit/537.36 (KHTML, like Gecko) Chrome/111.0.0.0 Safari/537.36" version="21.1.5" etag="SI7tksHWnX1UD2lRR9kz" type="gitlab">
  <diagram name="Page-1" id="zcwOyictL61b8vpgYaKc">
    <mxGraphModel>
      <root>
        <mxCell id="0" />
        <mxCell id="1" parent="0" />
      </root>
    </mxGraphModel>
  </diagram>
</mxfile>
