<mxfile host="app.diagrams.net" modified="2024-01-10T08:48:52.441Z" agent="Mozilla/5.0 (Macintosh; Intel Mac OS X 10_15_7) AppleWebKit/537.36 (KHTML, like Gecko) Chrome/120.0.0.0 Safari/537.36" version="22.1.17" etag="AI9xtCqnHAnFtSaLyvqL" type="gitlab">
  <diagram name="Page-1" id="846x0Dp8ffNzKKqbZyWd">
    <mxGraphModel>
      <root>
        <mxCell id="0" />
        <mxCell id="1" parent="0" />
      </root>
    </mxGraphModel>
  </diagram>
</mxfile>
