<mxfile host="app.diagrams.net" modified="2023-06-02T02:59:30.349Z" agent="Mozilla/5.0 (Macintosh; Intel Mac OS X 10_15_7) AppleWebKit/537.36 (KHTML, like Gecko) Chrome/113.0.0.0 Safari/537.36" etag="oSAJfS-2lSheAzuiNYdq" version="21.3.4" type="gitlab">
  <diagram name="Page-1" id="e7e014a7-5840-1c2e-5031-d8a46d1fe8dd">
    <mxGraphModel dx="1404" dy="870" grid="1" gridSize="10" guides="1" tooltips="1" connect="1" arrows="1" fold="1" page="1" pageScale="1" pageWidth="1169" pageHeight="826" background="none" math="0" shadow="0">
      <root>
        <mxCell id="0" />
        <mxCell id="1" parent="0" />
        <mxCell id="2" value="制品应用场景" style="swimlane;whiteSpace=wrap" parent="1" vertex="1">
          <mxGeometry x="160" y="128" width="284.5" height="522" as="geometry" />
        </mxCell>
        <mxCell id="5" value="" style="ellipse;shape=startState;" parent="2" vertex="1">
          <mxGeometry x="167.25" y="42" width="30" height="30" as="geometry" />
        </mxCell>
        <mxCell id="6" value="" style="edgeStyle=elbowEdgeStyle;elbow=horizontal;verticalAlign=bottom;endArrow=open;endSize=8;endFill=1;rounded=0;" parent="2" target="7" edge="1">
          <mxGeometry x="157.25" y="41" as="geometry">
            <mxPoint x="172.25" y="111" as="targetPoint" />
            <mxPoint x="182.25" y="71" as="sourcePoint" />
          </mxGeometry>
        </mxCell>
        <mxCell id="s7vmUUkMWAD9l6yMW0BG-42" value="" style="edgeStyle=orthogonalEdgeStyle;rounded=0;orthogonalLoop=1;jettySize=auto;html=1;" parent="2" source="7" target="s7vmUUkMWAD9l6yMW0BG-41" edge="1">
          <mxGeometry relative="1" as="geometry" />
        </mxCell>
        <mxCell id="7" value="Alinux 制品下载" style="" parent="2" vertex="1">
          <mxGeometry x="117.25" y="113" width="130" height="30" as="geometry" />
        </mxCell>
        <mxCell id="s7vmUUkMWAD9l6yMW0BG-47" value="" style="edgeStyle=orthogonalEdgeStyle;rounded=0;orthogonalLoop=1;jettySize=auto;html=1;" parent="2" source="8" target="s7vmUUkMWAD9l6yMW0BG-44" edge="1">
          <mxGeometry relative="1" as="geometry" />
        </mxCell>
        <mxCell id="8" value="Alinux 制品运行" style="" parent="2" vertex="1">
          <mxGeometry x="117.25" y="273" width="130" height="35" as="geometry" />
        </mxCell>
        <mxCell id="s7vmUUkMWAD9l6yMW0BG-46" value="yes" style="edgeStyle=orthogonalEdgeStyle;rounded=0;orthogonalLoop=1;jettySize=auto;html=1;entryX=0.5;entryY=-0.129;entryDx=0;entryDy=0;entryPerimeter=0;" parent="2" source="s7vmUUkMWAD9l6yMW0BG-41" target="8" edge="1">
          <mxGeometry x="0.0323" relative="1" as="geometry">
            <mxPoint x="183.25" y="263" as="targetPoint" />
            <Array as="points">
              <mxPoint x="182.25" y="268" />
              <mxPoint x="182.25" y="268" />
            </Array>
            <mxPoint as="offset" />
          </mxGeometry>
        </mxCell>
        <mxCell id="s7vmUUkMWAD9l6yMW0BG-55" style="edgeStyle=orthogonalEdgeStyle;rounded=0;orthogonalLoop=1;jettySize=auto;html=1;entryX=0.25;entryY=0.039;entryDx=0;entryDy=0;entryPerimeter=0;" parent="2" source="s7vmUUkMWAD9l6yMW0BG-41" target="s7vmUUkMWAD9l6yMW0BG-52" edge="1">
          <mxGeometry relative="1" as="geometry" />
        </mxCell>
        <mxCell id="s7vmUUkMWAD9l6yMW0BG-56" value="未通过" style="edgeLabel;html=1;align=center;verticalAlign=middle;resizable=0;points=[];" parent="s7vmUUkMWAD9l6yMW0BG-55" vertex="1" connectable="0">
          <mxGeometry x="-0.7179" y="2" relative="1" as="geometry">
            <mxPoint as="offset" />
          </mxGeometry>
        </mxCell>
        <mxCell id="s7vmUUkMWAD9l6yMW0BG-41" value="完整性认证" style="rhombus;fillColor=#dae8fc;strokeColor=#6c8ebf;" parent="2" vertex="1">
          <mxGeometry x="117.25" y="193" width="130" height="40" as="geometry" />
        </mxCell>
        <mxCell id="s7vmUUkMWAD9l6yMW0BG-51" value="yes" style="edgeStyle=orthogonalEdgeStyle;rounded=0;orthogonalLoop=1;jettySize=auto;html=1;" parent="2" source="s7vmUUkMWAD9l6yMW0BG-44" edge="1">
          <mxGeometry relative="1" as="geometry">
            <mxPoint x="182.75" y="423" as="targetPoint" />
            <Array as="points">
              <mxPoint x="183.25" y="403" />
              <mxPoint x="183.25" y="403" />
            </Array>
          </mxGeometry>
        </mxCell>
        <mxCell id="s7vmUUkMWAD9l6yMW0BG-57" style="edgeStyle=orthogonalEdgeStyle;rounded=0;orthogonalLoop=1;jettySize=auto;html=1;entryX=0.6;entryY=0.013;entryDx=0;entryDy=0;entryPerimeter=0;" parent="2" source="s7vmUUkMWAD9l6yMW0BG-44" target="s7vmUUkMWAD9l6yMW0BG-52" edge="1">
          <mxGeometry relative="1" as="geometry" />
        </mxCell>
        <mxCell id="s7vmUUkMWAD9l6yMW0BG-58" value="未通过" style="edgeLabel;html=1;align=center;verticalAlign=middle;resizable=0;points=[];" parent="s7vmUUkMWAD9l6yMW0BG-57" vertex="1" connectable="0">
          <mxGeometry x="-0.3492" relative="1" as="geometry">
            <mxPoint as="offset" />
          </mxGeometry>
        </mxCell>
        <mxCell id="s7vmUUkMWAD9l6yMW0BG-44" value="软件包&#xa;签名认证" style="rhombus;fillColor=#dae8fc;strokeColor=#6c8ebf;" parent="2" vertex="1">
          <mxGeometry x="117.25" y="343" width="130" height="40" as="geometry" />
        </mxCell>
        <mxCell id="s7vmUUkMWAD9l6yMW0BG-48" value="Alinux 制品安全" style="" parent="2" vertex="1">
          <mxGeometry x="117.25" y="423" width="130" height="38" as="geometry" />
        </mxCell>
        <mxCell id="s7vmUUkMWAD9l6yMW0BG-52" value="制品不安全" style="strokeColor=#FF0000;" parent="2" vertex="1">
          <mxGeometry x="37.25" y="423" width="60" height="38" as="geometry" />
        </mxCell>
        <mxCell id="3" value="制品研发场景" style="swimlane;whiteSpace=wrap" parent="1" vertex="1">
          <mxGeometry x="444.5" y="128" width="285.5" height="522" as="geometry" />
        </mxCell>
        <mxCell id="s7vmUUkMWAD9l6yMW0BG-61" value="" style="edgeStyle=orthogonalEdgeStyle;rounded=0;orthogonalLoop=1;jettySize=auto;html=1;" parent="3" source="15" target="s7vmUUkMWAD9l6yMW0BG-60" edge="1">
          <mxGeometry relative="1" as="geometry" />
        </mxCell>
        <mxCell id="15" value="Source Tree" style="" parent="3" vertex="1">
          <mxGeometry x="67.99000000000001" y="52" width="69.5" height="28" as="geometry" />
        </mxCell>
        <mxCell id="-9fIooSGBJW_QTC7Rrpn-49" style="edgeStyle=orthogonalEdgeStyle;rounded=0;orthogonalLoop=1;jettySize=auto;html=1;" edge="1" parent="3" source="18">
          <mxGeometry relative="1" as="geometry">
            <mxPoint x="142.7550000000001" y="292" as="targetPoint" />
          </mxGeometry>
        </mxCell>
        <mxCell id="-9fIooSGBJW_QTC7Rrpn-51" value="" style="edgeStyle=orthogonalEdgeStyle;rounded=0;orthogonalLoop=1;jettySize=auto;html=1;entryX=0.5;entryY=0;entryDx=0;entryDy=0;" edge="1" parent="3" source="18" target="s7vmUUkMWAD9l6yMW0BG-89">
          <mxGeometry relative="1" as="geometry" />
        </mxCell>
        <mxCell id="18" value="Distro 构建应用工具" style="fillColor=#dae8fc;strokeColor=#6c8ebf;" parent="3" vertex="1">
          <mxGeometry x="68.01" y="292" width="149.49" height="40" as="geometry" />
        </mxCell>
        <mxCell id="s7vmUUkMWAD9l6yMW0BG-62" value="" style="edgeStyle=orthogonalEdgeStyle;rounded=0;orthogonalLoop=1;jettySize=auto;html=1;" parent="3" source="s7vmUUkMWAD9l6yMW0BG-59" target="s7vmUUkMWAD9l6yMW0BG-60" edge="1">
          <mxGeometry relative="1" as="geometry" />
        </mxCell>
        <mxCell id="s7vmUUkMWAD9l6yMW0BG-59" value="Specfile" style="" parent="3" vertex="1">
          <mxGeometry x="152.99" y="52" width="64.5" height="28" as="geometry" />
        </mxCell>
        <mxCell id="-9fIooSGBJW_QTC7Rrpn-44" value="" style="edgeStyle=orthogonalEdgeStyle;rounded=0;orthogonalLoop=1;jettySize=auto;html=1;entryX=0.25;entryY=0;entryDx=0;entryDy=0;" edge="1" parent="3" source="s7vmUUkMWAD9l6yMW0BG-60" target="s7vmUUkMWAD9l6yMW0BG-76">
          <mxGeometry relative="1" as="geometry">
            <Array as="points">
              <mxPoint x="147" y="162" />
              <mxPoint x="147" y="162" />
            </Array>
          </mxGeometry>
        </mxCell>
        <mxCell id="s7vmUUkMWAD9l6yMW0BG-60" value="软件包构建工具和平台" style="fillColor=#dae8fc;strokeColor=#6c8ebf;" parent="3" vertex="1">
          <mxGeometry x="67.99000000000001" y="112" width="149.5" height="38" as="geometry" />
        </mxCell>
        <mxCell id="-9fIooSGBJW_QTC7Rrpn-45" value="" style="edgeStyle=orthogonalEdgeStyle;rounded=0;orthogonalLoop=1;jettySize=auto;html=1;" edge="1" parent="3" source="s7vmUUkMWAD9l6yMW0BG-76" target="s7vmUUkMWAD9l6yMW0BG-82">
          <mxGeometry relative="1" as="geometry">
            <Array as="points">
              <mxPoint x="146" y="242" />
              <mxPoint x="146" y="242" />
            </Array>
          </mxGeometry>
        </mxCell>
        <mxCell id="s7vmUUkMWAD9l6yMW0BG-76" value="软件包签名应用" style="fillColor=#dae8fc;strokeColor=#6c8ebf;" parent="3" vertex="1">
          <mxGeometry x="122.74" y="182" width="97.26" height="28" as="geometry" />
        </mxCell>
        <mxCell id="s7vmUUkMWAD9l6yMW0BG-77" value="公钥" style="fillColor=#FFFFFF;" parent="3" vertex="1">
          <mxGeometry x="67.99000000000001" y="182" width="29.5" height="28" as="geometry" />
        </mxCell>
        <mxCell id="s7vmUUkMWAD9l6yMW0BG-82" value="签名软件包" style="fillColor=#FFFFFF;" parent="3" vertex="1">
          <mxGeometry x="68" y="232" width="149.5" height="38" as="geometry" />
        </mxCell>
        <mxCell id="-9fIooSGBJW_QTC7Rrpn-52" value="" style="edgeStyle=orthogonalEdgeStyle;rounded=0;orthogonalLoop=1;jettySize=auto;html=1;entryX=0.5;entryY=0;entryDx=0;entryDy=0;" edge="1" parent="3" source="s7vmUUkMWAD9l6yMW0BG-89" target="s7vmUUkMWAD9l6yMW0BG-91">
          <mxGeometry relative="1" as="geometry" />
        </mxCell>
        <mxCell id="s7vmUUkMWAD9l6yMW0BG-89" value="Distro 交付件制品" style="" parent="3" vertex="1">
          <mxGeometry x="68" y="352" width="149.5" height="38" as="geometry" />
        </mxCell>
        <mxCell id="-9fIooSGBJW_QTC7Rrpn-47" value="" style="edgeStyle=orthogonalEdgeStyle;rounded=0;orthogonalLoop=1;jettySize=auto;html=1;" edge="1" parent="3" source="s7vmUUkMWAD9l6yMW0BG-91" target="-9fIooSGBJW_QTC7Rrpn-46">
          <mxGeometry relative="1" as="geometry" />
        </mxCell>
        <mxCell id="s7vmUUkMWAD9l6yMW0BG-91" value="Distro 完整性校验应用工具" style="fillColor=#dae8fc;strokeColor=#6c8ebf;" parent="3" vertex="1">
          <mxGeometry x="68.01" y="412" width="149.5" height="38" as="geometry" />
        </mxCell>
        <mxCell id="s7vmUUkMWAD9l6yMW0BG-99" value="" style="endArrow=classic;html=1;rounded=0;" parent="3" edge="1">
          <mxGeometry width="50" height="50" relative="1" as="geometry">
            <mxPoint x="122.99000000000001" y="196" as="sourcePoint" />
            <mxPoint x="92.99000000000001" y="196" as="targetPoint" />
          </mxGeometry>
        </mxCell>
        <mxCell id="-9fIooSGBJW_QTC7Rrpn-46" value="Distro sha256完整性校验值" style="" vertex="1" parent="3">
          <mxGeometry x="68" y="472" width="149.5" height="38" as="geometry" />
        </mxCell>
        <mxCell id="s7vmUUkMWAD9l6yMW0BG-126" value="" style="endArrow=classic;html=1;rounded=1;entryX=1;entryY=0.5;entryDx=0;entryDy=0;strokeColor=#6c8ebf;dashed=1;strokeWidth=2;exitX=-0.034;exitY=0.554;exitDx=0;exitDy=0;exitPerimeter=0;fillColor=#dae8fc;" parent="1" source="s7vmUUkMWAD9l6yMW0BG-77" target="s7vmUUkMWAD9l6yMW0BG-44" edge="1">
          <mxGeometry width="50" height="50" relative="1" as="geometry">
            <mxPoint x="470" y="320" as="sourcePoint" />
            <mxPoint x="370" y="370" as="targetPoint" />
          </mxGeometry>
        </mxCell>
        <mxCell id="-9fIooSGBJW_QTC7Rrpn-18" value="密钥管理中心（keycenter）" style="swimlane;whiteSpace=wrap" vertex="1" parent="1">
          <mxGeometry x="730" y="128" width="270" height="522" as="geometry" />
        </mxCell>
        <mxCell id="-9fIooSGBJW_QTC7Rrpn-38" value="唯一标识" style="edgeStyle=orthogonalEdgeStyle;rounded=0;orthogonalLoop=1;jettySize=auto;html=1;" edge="1" parent="-9fIooSGBJW_QTC7Rrpn-18" source="-9fIooSGBJW_QTC7Rrpn-36" target="-9fIooSGBJW_QTC7Rrpn-37">
          <mxGeometry relative="1" as="geometry" />
        </mxCell>
        <mxCell id="-9fIooSGBJW_QTC7Rrpn-36" value="发放码" style="" vertex="1" parent="-9fIooSGBJW_QTC7Rrpn-18">
          <mxGeometry x="160" y="62" width="64.5" height="28" as="geometry" />
        </mxCell>
        <mxCell id="-9fIooSGBJW_QTC7Rrpn-41" value="" style="edgeStyle=orthogonalEdgeStyle;rounded=0;orthogonalLoop=1;jettySize=auto;html=1;" edge="1" parent="-9fIooSGBJW_QTC7Rrpn-18" source="-9fIooSGBJW_QTC7Rrpn-37" target="-9fIooSGBJW_QTC7Rrpn-40">
          <mxGeometry relative="1" as="geometry" />
        </mxCell>
        <mxCell id="-9fIooSGBJW_QTC7Rrpn-37" value="注册应用" style="" vertex="1" parent="-9fIooSGBJW_QTC7Rrpn-18">
          <mxGeometry x="160" y="180" width="64.5" height="28" as="geometry" />
        </mxCell>
        <mxCell id="-9fIooSGBJW_QTC7Rrpn-42" value="唯一标识" style="edgeStyle=orthogonalEdgeStyle;rounded=0;orthogonalLoop=1;jettySize=auto;html=1;" edge="1" parent="-9fIooSGBJW_QTC7Rrpn-18" source="-9fIooSGBJW_QTC7Rrpn-39" target="-9fIooSGBJW_QTC7Rrpn-40">
          <mxGeometry relative="1" as="geometry" />
        </mxCell>
        <mxCell id="-9fIooSGBJW_QTC7Rrpn-39" value="密钥名称" style="" vertex="1" parent="-9fIooSGBJW_QTC7Rrpn-18">
          <mxGeometry x="60" y="62" width="64.5" height="28" as="geometry" />
        </mxCell>
        <mxCell id="-9fIooSGBJW_QTC7Rrpn-40" value="私钥 Key" style="" vertex="1" parent="-9fIooSGBJW_QTC7Rrpn-18">
          <mxGeometry x="60" y="180" width="64.5" height="28" as="geometry" />
        </mxCell>
        <mxCell id="-9fIooSGBJW_QTC7Rrpn-43" value="" style="endArrow=classic;html=1;rounded=0;exitX=1;exitY=0.5;exitDx=0;exitDy=0;" edge="1" parent="1" source="s7vmUUkMWAD9l6yMW0BG-76">
          <mxGeometry width="50" height="50" relative="1" as="geometry">
            <mxPoint x="577.49" y="334" as="sourcePoint" />
            <mxPoint x="790" y="324" as="targetPoint" />
          </mxGeometry>
        </mxCell>
      </root>
    </mxGraphModel>
  </diagram>
</mxfile>
