<mxfile host="app.diagrams.net" modified="2023-08-29T10:28:52.094Z" agent="Mozilla/5.0 (Macintosh; Intel Mac OS X 10_15_7) AppleWebKit/537.36 (KHTML, like Gecko) Chrome/115.0.0.0 Safari/537.36" etag="G-uiI3PIYBtMZMyqjpzS" version="21.6.9" type="gitlab">
  <diagram name="Page-1" id="x9zsYXaUvylAdoREa8c0">
    <mxGraphModel dx="1026" dy="655" grid="1" gridSize="10" guides="1" tooltips="1" connect="1" arrows="1" fold="1" page="1" pageScale="1" pageWidth="850" pageHeight="1100" math="0" shadow="0">
      <root>
        <mxCell id="0" />
        <mxCell id="1" parent="0" />
        <mxCell id="ydacWX4OAVcc4X46quWK-1" value="制品应用场景" style="swimlane;whiteSpace=wrap" vertex="1" parent="1">
          <mxGeometry x="160" y="128" width="284.5" height="522" as="geometry" />
        </mxCell>
        <mxCell id="ydacWX4OAVcc4X46quWK-2" value="" style="ellipse;shape=startState;" vertex="1" parent="ydacWX4OAVcc4X46quWK-1">
          <mxGeometry x="167.25" y="42" width="30" height="30" as="geometry" />
        </mxCell>
        <mxCell id="ydacWX4OAVcc4X46quWK-3" value="" style="edgeStyle=elbowEdgeStyle;elbow=horizontal;verticalAlign=bottom;endArrow=open;endSize=8;endFill=1;rounded=0;" edge="1" parent="ydacWX4OAVcc4X46quWK-1" target="ydacWX4OAVcc4X46quWK-5">
          <mxGeometry x="157.25" y="41" as="geometry">
            <mxPoint x="172.25" y="111" as="targetPoint" />
            <mxPoint x="182.25" y="71" as="sourcePoint" />
          </mxGeometry>
        </mxCell>
        <mxCell id="ydacWX4OAVcc4X46quWK-4" value="" style="edgeStyle=orthogonalEdgeStyle;rounded=0;orthogonalLoop=1;jettySize=auto;html=1;" edge="1" parent="ydacWX4OAVcc4X46quWK-1" source="ydacWX4OAVcc4X46quWK-5" target="ydacWX4OAVcc4X46quWK-11">
          <mxGeometry relative="1" as="geometry" />
        </mxCell>
        <mxCell id="ydacWX4OAVcc4X46quWK-5" value="Alinux 制品下载" style="" vertex="1" parent="ydacWX4OAVcc4X46quWK-1">
          <mxGeometry x="117.25" y="113" width="130" height="30" as="geometry" />
        </mxCell>
        <mxCell id="ydacWX4OAVcc4X46quWK-6" value="" style="edgeStyle=orthogonalEdgeStyle;rounded=0;orthogonalLoop=1;jettySize=auto;html=1;" edge="1" parent="ydacWX4OAVcc4X46quWK-1" source="ydacWX4OAVcc4X46quWK-7" target="ydacWX4OAVcc4X46quWK-15">
          <mxGeometry relative="1" as="geometry" />
        </mxCell>
        <mxCell id="ydacWX4OAVcc4X46quWK-7" value="Alinux 制品运行" style="" vertex="1" parent="ydacWX4OAVcc4X46quWK-1">
          <mxGeometry x="117.25" y="273" width="130" height="35" as="geometry" />
        </mxCell>
        <mxCell id="ydacWX4OAVcc4X46quWK-8" value="yes" style="edgeStyle=orthogonalEdgeStyle;rounded=0;orthogonalLoop=1;jettySize=auto;html=1;entryX=0.5;entryY=-0.129;entryDx=0;entryDy=0;entryPerimeter=0;" edge="1" parent="ydacWX4OAVcc4X46quWK-1" source="ydacWX4OAVcc4X46quWK-11" target="ydacWX4OAVcc4X46quWK-7">
          <mxGeometry x="0.0323" relative="1" as="geometry">
            <mxPoint x="183.25" y="263" as="targetPoint" />
            <Array as="points">
              <mxPoint x="182.25" y="268" />
              <mxPoint x="182.25" y="268" />
            </Array>
            <mxPoint as="offset" />
          </mxGeometry>
        </mxCell>
        <mxCell id="ydacWX4OAVcc4X46quWK-9" style="edgeStyle=orthogonalEdgeStyle;rounded=0;orthogonalLoop=1;jettySize=auto;html=1;entryX=0.25;entryY=0.039;entryDx=0;entryDy=0;entryPerimeter=0;" edge="1" parent="ydacWX4OAVcc4X46quWK-1" source="ydacWX4OAVcc4X46quWK-11" target="ydacWX4OAVcc4X46quWK-17">
          <mxGeometry relative="1" as="geometry" />
        </mxCell>
        <mxCell id="ydacWX4OAVcc4X46quWK-10" value="未通过" style="edgeLabel;html=1;align=center;verticalAlign=middle;resizable=0;points=[];" vertex="1" connectable="0" parent="ydacWX4OAVcc4X46quWK-9">
          <mxGeometry x="-0.7179" y="2" relative="1" as="geometry">
            <mxPoint as="offset" />
          </mxGeometry>
        </mxCell>
        <mxCell id="ydacWX4OAVcc4X46quWK-11" value="完整性认证" style="rhombus;" vertex="1" parent="ydacWX4OAVcc4X46quWK-1">
          <mxGeometry x="117.25" y="193" width="130" height="40" as="geometry" />
        </mxCell>
        <mxCell id="ydacWX4OAVcc4X46quWK-12" value="yes" style="edgeStyle=orthogonalEdgeStyle;rounded=0;orthogonalLoop=1;jettySize=auto;html=1;" edge="1" parent="ydacWX4OAVcc4X46quWK-1" source="ydacWX4OAVcc4X46quWK-15">
          <mxGeometry relative="1" as="geometry">
            <mxPoint x="182.75" y="423" as="targetPoint" />
            <Array as="points">
              <mxPoint x="183.25" y="403" />
              <mxPoint x="183.25" y="403" />
            </Array>
          </mxGeometry>
        </mxCell>
        <mxCell id="ydacWX4OAVcc4X46quWK-13" style="edgeStyle=orthogonalEdgeStyle;rounded=0;orthogonalLoop=1;jettySize=auto;html=1;entryX=0.6;entryY=0.013;entryDx=0;entryDy=0;entryPerimeter=0;" edge="1" parent="ydacWX4OAVcc4X46quWK-1" source="ydacWX4OAVcc4X46quWK-15" target="ydacWX4OAVcc4X46quWK-17">
          <mxGeometry relative="1" as="geometry" />
        </mxCell>
        <mxCell id="ydacWX4OAVcc4X46quWK-14" value="未通过" style="edgeLabel;html=1;align=center;verticalAlign=middle;resizable=0;points=[];" vertex="1" connectable="0" parent="ydacWX4OAVcc4X46quWK-13">
          <mxGeometry x="-0.3492" relative="1" as="geometry">
            <mxPoint as="offset" />
          </mxGeometry>
        </mxCell>
        <mxCell id="ydacWX4OAVcc4X46quWK-15" value="软件包&#xa;签名认证" style="rhombus;" vertex="1" parent="ydacWX4OAVcc4X46quWK-1">
          <mxGeometry x="117.25" y="343" width="130" height="40" as="geometry" />
        </mxCell>
        <mxCell id="ydacWX4OAVcc4X46quWK-16" value="Alinux 制品安全" style="" vertex="1" parent="ydacWX4OAVcc4X46quWK-1">
          <mxGeometry x="117.25" y="423" width="130" height="38" as="geometry" />
        </mxCell>
        <mxCell id="ydacWX4OAVcc4X46quWK-17" value="制品不安全" style="strokeColor=#FF0000;" vertex="1" parent="ydacWX4OAVcc4X46quWK-1">
          <mxGeometry x="37.25" y="423" width="60" height="38" as="geometry" />
        </mxCell>
        <mxCell id="ydacWX4OAVcc4X46quWK-18" value="制品研发场景" style="swimlane;whiteSpace=wrap" vertex="1" parent="1">
          <mxGeometry x="444.5" y="128" width="285.5" height="522" as="geometry" />
        </mxCell>
        <mxCell id="ydacWX4OAVcc4X46quWK-19" value="" style="edgeStyle=orthogonalEdgeStyle;rounded=0;orthogonalLoop=1;jettySize=auto;html=1;" edge="1" parent="ydacWX4OAVcc4X46quWK-18" source="ydacWX4OAVcc4X46quWK-20" target="ydacWX4OAVcc4X46quWK-27">
          <mxGeometry relative="1" as="geometry" />
        </mxCell>
        <mxCell id="ydacWX4OAVcc4X46quWK-20" value="Source Tree" style="" vertex="1" parent="ydacWX4OAVcc4X46quWK-18">
          <mxGeometry x="67.99000000000001" y="52" width="69.5" height="28" as="geometry" />
        </mxCell>
        <mxCell id="ydacWX4OAVcc4X46quWK-21" style="edgeStyle=orthogonalEdgeStyle;rounded=0;orthogonalLoop=1;jettySize=auto;html=1;" edge="1" parent="ydacWX4OAVcc4X46quWK-18" source="ydacWX4OAVcc4X46quWK-23">
          <mxGeometry relative="1" as="geometry">
            <mxPoint x="142.7550000000001" y="292" as="targetPoint" />
          </mxGeometry>
        </mxCell>
        <mxCell id="ydacWX4OAVcc4X46quWK-22" value="" style="edgeStyle=orthogonalEdgeStyle;rounded=0;orthogonalLoop=1;jettySize=auto;html=1;entryX=0.5;entryY=0;entryDx=0;entryDy=0;" edge="1" parent="ydacWX4OAVcc4X46quWK-18" source="ydacWX4OAVcc4X46quWK-23" target="ydacWX4OAVcc4X46quWK-33">
          <mxGeometry relative="1" as="geometry" />
        </mxCell>
        <mxCell id="ydacWX4OAVcc4X46quWK-23" value="Distro 构建应用工具" style="" vertex="1" parent="ydacWX4OAVcc4X46quWK-18">
          <mxGeometry x="68.01" y="292" width="149.49" height="40" as="geometry" />
        </mxCell>
        <mxCell id="ydacWX4OAVcc4X46quWK-24" value="" style="edgeStyle=orthogonalEdgeStyle;rounded=0;orthogonalLoop=1;jettySize=auto;html=1;" edge="1" parent="ydacWX4OAVcc4X46quWK-18" source="ydacWX4OAVcc4X46quWK-25" target="ydacWX4OAVcc4X46quWK-27">
          <mxGeometry relative="1" as="geometry" />
        </mxCell>
        <mxCell id="ydacWX4OAVcc4X46quWK-25" value="Specfile" style="" vertex="1" parent="ydacWX4OAVcc4X46quWK-18">
          <mxGeometry x="152.99" y="52" width="64.5" height="28" as="geometry" />
        </mxCell>
        <mxCell id="ydacWX4OAVcc4X46quWK-26" value="" style="edgeStyle=orthogonalEdgeStyle;rounded=0;orthogonalLoop=1;jettySize=auto;html=1;entryX=0.25;entryY=0;entryDx=0;entryDy=0;" edge="1" parent="ydacWX4OAVcc4X46quWK-18" source="ydacWX4OAVcc4X46quWK-27" target="ydacWX4OAVcc4X46quWK-29">
          <mxGeometry relative="1" as="geometry">
            <Array as="points">
              <mxPoint x="147" y="162" />
              <mxPoint x="147" y="162" />
            </Array>
          </mxGeometry>
        </mxCell>
        <mxCell id="ydacWX4OAVcc4X46quWK-27" value="软件包构建工具和平台" style="" vertex="1" parent="ydacWX4OAVcc4X46quWK-18">
          <mxGeometry x="67.99000000000001" y="112" width="149.5" height="38" as="geometry" />
        </mxCell>
        <mxCell id="ydacWX4OAVcc4X46quWK-28" value="" style="edgeStyle=orthogonalEdgeStyle;rounded=0;orthogonalLoop=1;jettySize=auto;html=1;" edge="1" parent="ydacWX4OAVcc4X46quWK-18" source="ydacWX4OAVcc4X46quWK-29" target="ydacWX4OAVcc4X46quWK-31">
          <mxGeometry relative="1" as="geometry">
            <Array as="points">
              <mxPoint x="146" y="242" />
              <mxPoint x="146" y="242" />
            </Array>
          </mxGeometry>
        </mxCell>
        <mxCell id="ydacWX4OAVcc4X46quWK-29" value="软件包签名应用" style="fillColor=#d5e8d4;strokeColor=#82b366;" vertex="1" parent="ydacWX4OAVcc4X46quWK-18">
          <mxGeometry x="122.74" y="182" width="97.26" height="28" as="geometry" />
        </mxCell>
        <mxCell id="ydacWX4OAVcc4X46quWK-30" value="公钥" style="fillColor=#FFFFFF;" vertex="1" parent="ydacWX4OAVcc4X46quWK-18">
          <mxGeometry x="67.99000000000001" y="182" width="29.5" height="28" as="geometry" />
        </mxCell>
        <mxCell id="ydacWX4OAVcc4X46quWK-31" value="签名软件包" style="fillColor=#FFFFFF;" vertex="1" parent="ydacWX4OAVcc4X46quWK-18">
          <mxGeometry x="68" y="232" width="149.5" height="38" as="geometry" />
        </mxCell>
        <mxCell id="ydacWX4OAVcc4X46quWK-32" value="" style="edgeStyle=orthogonalEdgeStyle;rounded=0;orthogonalLoop=1;jettySize=auto;html=1;entryX=0.5;entryY=0;entryDx=0;entryDy=0;" edge="1" parent="ydacWX4OAVcc4X46quWK-18" source="ydacWX4OAVcc4X46quWK-33" target="ydacWX4OAVcc4X46quWK-35">
          <mxGeometry relative="1" as="geometry" />
        </mxCell>
        <mxCell id="ydacWX4OAVcc4X46quWK-33" value="Distro 交付件制品" style="" vertex="1" parent="ydacWX4OAVcc4X46quWK-18">
          <mxGeometry x="68" y="352" width="149.5" height="38" as="geometry" />
        </mxCell>
        <mxCell id="ydacWX4OAVcc4X46quWK-34" value="" style="edgeStyle=orthogonalEdgeStyle;rounded=0;orthogonalLoop=1;jettySize=auto;html=1;" edge="1" parent="ydacWX4OAVcc4X46quWK-18" source="ydacWX4OAVcc4X46quWK-35" target="ydacWX4OAVcc4X46quWK-37">
          <mxGeometry relative="1" as="geometry" />
        </mxCell>
        <mxCell id="ydacWX4OAVcc4X46quWK-35" value="Distro 完整性校验应用工具" style="" vertex="1" parent="ydacWX4OAVcc4X46quWK-18">
          <mxGeometry x="68.01" y="412" width="149.5" height="38" as="geometry" />
        </mxCell>
        <mxCell id="ydacWX4OAVcc4X46quWK-36" value="" style="endArrow=classic;html=1;rounded=0;" edge="1" parent="ydacWX4OAVcc4X46quWK-18">
          <mxGeometry width="50" height="50" relative="1" as="geometry">
            <mxPoint x="122.99000000000001" y="196" as="sourcePoint" />
            <mxPoint x="92.99000000000001" y="196" as="targetPoint" />
          </mxGeometry>
        </mxCell>
        <mxCell id="ydacWX4OAVcc4X46quWK-37" value="Distro sha256完整性校验值" style="" vertex="1" parent="ydacWX4OAVcc4X46quWK-18">
          <mxGeometry x="68" y="472" width="149.5" height="38" as="geometry" />
        </mxCell>
        <mxCell id="ydacWX4OAVcc4X46quWK-38" value="" style="endArrow=classic;html=1;rounded=1;entryX=1;entryY=0.5;entryDx=0;entryDy=0;strokeColor=#000000;dashed=1;strokeWidth=1;exitX=-0.034;exitY=0.554;exitDx=0;exitDy=0;exitPerimeter=0;fillColor=#dae8fc;" edge="1" parent="1" source="ydacWX4OAVcc4X46quWK-30" target="ydacWX4OAVcc4X46quWK-15">
          <mxGeometry width="50" height="50" relative="1" as="geometry">
            <mxPoint x="470" y="320" as="sourcePoint" />
            <mxPoint x="370" y="370" as="targetPoint" />
          </mxGeometry>
        </mxCell>
        <mxCell id="ydacWX4OAVcc4X46quWK-39" value="密钥管理中心（keycenter）" style="swimlane;whiteSpace=wrap;fillColor=#d5e8d4;strokeColor=#82b366;" vertex="1" parent="1">
          <mxGeometry x="730" y="128" width="270" height="522" as="geometry" />
        </mxCell>
        <mxCell id="ydacWX4OAVcc4X46quWK-40" value="唯一标识" style="edgeStyle=orthogonalEdgeStyle;rounded=0;orthogonalLoop=1;jettySize=auto;html=1;" edge="1" parent="ydacWX4OAVcc4X46quWK-39" source="ydacWX4OAVcc4X46quWK-41" target="ydacWX4OAVcc4X46quWK-43">
          <mxGeometry relative="1" as="geometry" />
        </mxCell>
        <mxCell id="ydacWX4OAVcc4X46quWK-41" value="发放码" style="fillColor=#d5e8d4;strokeColor=#82b366;" vertex="1" parent="ydacWX4OAVcc4X46quWK-39">
          <mxGeometry x="160" y="62" width="64.5" height="28" as="geometry" />
        </mxCell>
        <mxCell id="ydacWX4OAVcc4X46quWK-42" value="" style="edgeStyle=orthogonalEdgeStyle;rounded=0;orthogonalLoop=1;jettySize=auto;html=1;" edge="1" parent="ydacWX4OAVcc4X46quWK-39" source="ydacWX4OAVcc4X46quWK-43" target="ydacWX4OAVcc4X46quWK-46">
          <mxGeometry relative="1" as="geometry" />
        </mxCell>
        <mxCell id="ydacWX4OAVcc4X46quWK-43" value="注册应用" style="fillColor=#d5e8d4;strokeColor=#82b366;" vertex="1" parent="ydacWX4OAVcc4X46quWK-39">
          <mxGeometry x="160" y="180" width="64.5" height="28" as="geometry" />
        </mxCell>
        <mxCell id="ydacWX4OAVcc4X46quWK-44" value="唯一标识" style="edgeStyle=orthogonalEdgeStyle;rounded=0;orthogonalLoop=1;jettySize=auto;html=1;" edge="1" parent="ydacWX4OAVcc4X46quWK-39" source="ydacWX4OAVcc4X46quWK-45" target="ydacWX4OAVcc4X46quWK-46">
          <mxGeometry relative="1" as="geometry" />
        </mxCell>
        <mxCell id="ydacWX4OAVcc4X46quWK-45" value="密钥名称" style="fillColor=#d5e8d4;strokeColor=#82b366;" vertex="1" parent="ydacWX4OAVcc4X46quWK-39">
          <mxGeometry x="60" y="62" width="64.5" height="28" as="geometry" />
        </mxCell>
        <mxCell id="ydacWX4OAVcc4X46quWK-46" value="私钥 Key" style="fillColor=#d5e8d4;strokeColor=#82b366;" vertex="1" parent="ydacWX4OAVcc4X46quWK-39">
          <mxGeometry x="60" y="180" width="64.5" height="28" as="geometry" />
        </mxCell>
        <mxCell id="ydacWX4OAVcc4X46quWK-47" value="" style="endArrow=classic;html=1;rounded=0;exitX=1;exitY=0.5;exitDx=0;exitDy=0;" edge="1" parent="1" source="ydacWX4OAVcc4X46quWK-29">
          <mxGeometry width="50" height="50" relative="1" as="geometry">
            <mxPoint x="577.49" y="334" as="sourcePoint" />
            <mxPoint x="790" y="324" as="targetPoint" />
          </mxGeometry>
        </mxCell>
      </root>
    </mxGraphModel>
  </diagram>
</mxfile>
