<mxfile host="app.diagrams.net" modified="2024-04-28T08:02:15.868Z" agent="Mozilla/5.0 (Macintosh; Intel Mac OS X 10_15_7) AppleWebKit/537.36 (KHTML, like Gecko) Chrome/124.0.0.0 Safari/537.36" etag="2oNIMIjfSKY60yzGzB39" version="24.2.9" type="gitlab">
  <diagram name="Page-1" id="SzaERLtDw9Rjs80AL1Bf">
    <mxGraphModel dx="1914" dy="1026" grid="1" gridSize="10" guides="1" tooltips="1" connect="1" arrows="1" fold="1" page="1" pageScale="1" pageWidth="850" pageHeight="1100" math="0" shadow="0">
      <root>
        <mxCell id="0" />
        <mxCell id="1" parent="0" />
        <mxCell id="Oe5putzPKrWqVoaML0aL-9" value="操作系统兼容性合作平台组" style="swimlane;childLayout=stackLayout;resizeParent=1;resizeParentMax=0;horizontal=0;startSize=20;horizontalStack=0;html=1;fillColor=#e1d5e7;strokeColor=#9673a6;" parent="1" vertex="1">
          <mxGeometry x="180" y="400" width="820" height="400" as="geometry">
            <mxRectangle x="180" y="400" width="40" height="60" as="alternateBounds" />
          </mxGeometry>
        </mxCell>
        <mxCell id="Oe5putzPKrWqVoaML0aL-10" value="提案组" style="swimlane;startSize=20;horizontal=0;html=1;fillColor=#dae8fc;strokeColor=#6c8ebf;" parent="Oe5putzPKrWqVoaML0aL-9" vertex="1">
          <mxGeometry x="20" width="800" height="120" as="geometry">
            <mxRectangle x="20" width="460" height="30" as="alternateBounds" />
          </mxGeometry>
        </mxCell>
        <mxCell id="mqcDnKDgaOp0_VNbtNC6-6" style="edgeStyle=orthogonalEdgeStyle;rounded=0;orthogonalLoop=1;jettySize=auto;html=1;entryX=0;entryY=0.5;entryDx=0;entryDy=0;" parent="Oe5putzPKrWqVoaML0aL-10" source="Oe5putzPKrWqVoaML0aL-40" target="mqcDnKDgaOp0_VNbtNC6-1" edge="1">
          <mxGeometry relative="1" as="geometry" />
        </mxCell>
        <mxCell id="Oe5putzPKrWqVoaML0aL-40" value="提案组验证" style="rounded=0;whiteSpace=wrap;html=1;" parent="Oe5putzPKrWqVoaML0aL-10" vertex="1">
          <mxGeometry x="110" y="35" width="210" height="50" as="geometry" />
        </mxCell>
        <mxCell id="mqcDnKDgaOp0_VNbtNC6-1" value="提案组案例和规范反馈，配合宣贯计划" style="rounded=0;whiteSpace=wrap;html=1;" parent="Oe5putzPKrWqVoaML0aL-10" vertex="1">
          <mxGeometry x="450" y="35" width="212" height="50" as="geometry" />
        </mxCell>
        <mxCell id="mqcDnKDgaOp0_VNbtNC6-4" value="&lt;font style=&quot;font-size: 10px;&quot;&gt;问题反馈&lt;/font&gt;" style="text;html=1;strokeColor=none;fillColor=none;align=center;verticalAlign=middle;whiteSpace=wrap;rounded=0;" parent="Oe5putzPKrWqVoaML0aL-10" vertex="1">
          <mxGeometry x="70" y="85" width="60" height="30" as="geometry" />
        </mxCell>
        <mxCell id="mqcDnKDgaOp0_VNbtNC6-3" value="&lt;font style=&quot;font-size: 10px;&quot;&gt;案例反馈&lt;/font&gt;" style="text;html=1;strokeColor=none;fillColor=none;align=center;verticalAlign=middle;whiteSpace=wrap;rounded=0;" parent="Oe5putzPKrWqVoaML0aL-10" vertex="1">
          <mxGeometry x="560" y="85" width="60" height="30" as="geometry" />
        </mxCell>
        <mxCell id="mqcDnKDgaOp0_VNbtNC6-7" value="&lt;font style=&quot;font-size: 10px;&quot;&gt;总结沉淀&lt;/font&gt;" style="text;html=1;strokeColor=none;fillColor=none;align=center;verticalAlign=middle;whiteSpace=wrap;rounded=0;" parent="Oe5putzPKrWqVoaML0aL-10" vertex="1">
          <mxGeometry x="350" y="30" width="60" height="30" as="geometry" />
        </mxCell>
        <mxCell id="Oe5putzPKrWqVoaML0aL-11" value="审核组" style="swimlane;startSize=20;horizontal=0;html=1;fillColor=#fff2cc;strokeColor=#d6b656;" parent="Oe5putzPKrWqVoaML0aL-9" vertex="1">
          <mxGeometry x="20" y="120" width="800" height="130" as="geometry">
            <mxRectangle x="20" y="120" width="460" height="30" as="alternateBounds" />
          </mxGeometry>
        </mxCell>
        <mxCell id="g2B-ImMqySsoavn_--9E-3" value="" style="edgeStyle=orthogonalEdgeStyle;rounded=0;orthogonalLoop=1;jettySize=auto;html=1;" parent="Oe5putzPKrWqVoaML0aL-11" source="Oe5putzPKrWqVoaML0aL-14" target="Oe5putzPKrWqVoaML0aL-15" edge="1">
          <mxGeometry relative="1" as="geometry" />
        </mxCell>
        <mxCell id="Oe5putzPKrWqVoaML0aL-14" value="审核组&lt;br&gt;投票决策" style="rounded=0;whiteSpace=wrap;html=1;" parent="Oe5putzPKrWqVoaML0aL-11" vertex="1">
          <mxGeometry x="280" y="32.5" width="90" height="35" as="geometry" />
        </mxCell>
        <mxCell id="Oe5putzPKrWqVoaML0aL-23" value="" style="edgeStyle=orthogonalEdgeStyle;rounded=0;orthogonalLoop=1;jettySize=auto;html=1;" parent="Oe5putzPKrWqVoaML0aL-11" source="Oe5putzPKrWqVoaML0aL-15" target="Oe5putzPKrWqVoaML0aL-22" edge="1">
          <mxGeometry relative="1" as="geometry" />
        </mxCell>
        <mxCell id="Oe5putzPKrWqVoaML0aL-50" value="否" style="edgeLabel;html=1;align=center;verticalAlign=middle;resizable=0;points=[];fontSize=12;fontFamily=Helvetica;fontColor=default;" parent="Oe5putzPKrWqVoaML0aL-23" vertex="1" connectable="0">
          <mxGeometry x="-0.2632" y="-3" relative="1" as="geometry">
            <mxPoint as="offset" />
          </mxGeometry>
        </mxCell>
        <mxCell id="Oe5putzPKrWqVoaML0aL-15" value="对投票&lt;br&gt;有异议" style="rhombus;whiteSpace=wrap;html=1;" parent="Oe5putzPKrWqVoaML0aL-11" vertex="1">
          <mxGeometry x="430" y="25" width="90" height="50" as="geometry" />
        </mxCell>
        <mxCell id="g2B-ImMqySsoavn_--9E-2" value="" style="edgeStyle=orthogonalEdgeStyle;rounded=0;orthogonalLoop=1;jettySize=auto;html=1;" parent="Oe5putzPKrWqVoaML0aL-11" source="Oe5putzPKrWqVoaML0aL-22" target="Oe5putzPKrWqVoaML0aL-55" edge="1">
          <mxGeometry relative="1" as="geometry" />
        </mxCell>
        <mxCell id="Oe5putzPKrWqVoaML0aL-22" value="决策结束" style="rounded=0;whiteSpace=wrap;html=1;" parent="Oe5putzPKrWqVoaML0aL-11" vertex="1">
          <mxGeometry x="570" y="32.5" width="60" height="35" as="geometry" />
        </mxCell>
        <mxCell id="Oe5putzPKrWqVoaML0aL-46" value="" style="edgeStyle=orthogonalEdgeStyle;rounded=0;orthogonalLoop=1;jettySize=auto;html=1;fontFamily=Helvetica;fontSize=12;fontColor=default;startSize=20;" parent="Oe5putzPKrWqVoaML0aL-11" source="Oe5putzPKrWqVoaML0aL-36" target="Oe5putzPKrWqVoaML0aL-43" edge="1">
          <mxGeometry relative="1" as="geometry" />
        </mxCell>
        <mxCell id="g2B-ImMqySsoavn_--9E-7" style="edgeStyle=orthogonalEdgeStyle;rounded=0;orthogonalLoop=1;jettySize=auto;html=1;entryX=0;entryY=0.5;entryDx=0;entryDy=0;" parent="Oe5putzPKrWqVoaML0aL-11" source="Oe5putzPKrWqVoaML0aL-36" target="g2B-ImMqySsoavn_--9E-4" edge="1">
          <mxGeometry relative="1" as="geometry">
            <Array as="points">
              <mxPoint x="140" y="67.5" />
              <mxPoint x="140" y="95.5" />
            </Array>
          </mxGeometry>
        </mxCell>
        <mxCell id="Oe5putzPKrWqVoaML0aL-36" value="每项目三家社&lt;span style=&quot;background-color: initial;&quot;&gt;区各推举一位维护者&lt;/span&gt;&lt;span style=&quot;background-color: initial;&quot;&gt;成立&lt;/span&gt;&lt;span style=&quot;background-color: initial;&quot;&gt;审核组&lt;/span&gt;" style="rounded=0;whiteSpace=wrap;html=1;" parent="Oe5putzPKrWqVoaML0aL-11" vertex="1">
          <mxGeometry x="30" y="42.5" width="90" height="50" as="geometry" />
        </mxCell>
        <mxCell id="Oe5putzPKrWqVoaML0aL-52" value="" style="edgeStyle=orthogonalEdgeStyle;rounded=0;orthogonalLoop=1;jettySize=auto;html=1;fontFamily=Helvetica;fontSize=12;fontColor=default;startSize=20;" parent="Oe5putzPKrWqVoaML0aL-11" source="Oe5putzPKrWqVoaML0aL-43" target="Oe5putzPKrWqVoaML0aL-14" edge="1">
          <mxGeometry relative="1" as="geometry" />
        </mxCell>
        <mxCell id="Oe5putzPKrWqVoaML0aL-43" value="发布、迭代和修复规范" style="rounded=0;whiteSpace=wrap;html=1;" parent="Oe5putzPKrWqVoaML0aL-11" vertex="1">
          <mxGeometry x="160" y="32.5" width="100" height="35" as="geometry" />
        </mxCell>
        <mxCell id="Oe5putzPKrWqVoaML0aL-55" value="审核组&lt;br&gt;推动需求落地" style="rounded=0;whiteSpace=wrap;html=1;" parent="Oe5putzPKrWqVoaML0aL-11" vertex="1">
          <mxGeometry x="685" y="32.5" width="110" height="35" as="geometry" />
        </mxCell>
        <mxCell id="mqcDnKDgaOp0_VNbtNC6-9" value="&lt;font style=&quot;font-size: 10px;&quot;&gt;定义需求&lt;/font&gt;" style="text;html=1;strokeColor=none;fillColor=none;align=center;verticalAlign=middle;whiteSpace=wrap;rounded=0;" parent="Oe5putzPKrWqVoaML0aL-11" vertex="1">
          <mxGeometry x="630" y="22.5" width="60" height="30" as="geometry" />
        </mxCell>
        <mxCell id="g2B-ImMqySsoavn_--9E-6" value="" style="edgeStyle=orthogonalEdgeStyle;rounded=0;orthogonalLoop=1;jettySize=auto;html=1;" parent="Oe5putzPKrWqVoaML0aL-11" source="g2B-ImMqySsoavn_--9E-4" target="g2B-ImMqySsoavn_--9E-5" edge="1">
          <mxGeometry relative="1" as="geometry" />
        </mxCell>
        <mxCell id="g2B-ImMqySsoavn_--9E-4" value="规范提案调研工作" style="rounded=0;whiteSpace=wrap;html=1;" parent="Oe5putzPKrWqVoaML0aL-11" vertex="1">
          <mxGeometry x="160" y="77.5" width="100" height="35" as="geometry" />
        </mxCell>
        <mxCell id="g2B-ImMqySsoavn_--9E-5" value="开展规范&lt;br&gt;提案调研" style="rounded=0;whiteSpace=wrap;html=1;" parent="Oe5putzPKrWqVoaML0aL-11" vertex="1">
          <mxGeometry x="280" y="77.5" width="90" height="35" as="geometry" />
        </mxCell>
        <mxCell id="g2B-ImMqySsoavn_--9E-26" style="edgeStyle=orthogonalEdgeStyle;rounded=0;orthogonalLoop=1;jettySize=auto;html=1;entryX=0.64;entryY=0;entryDx=0;entryDy=0;entryPerimeter=0;" parent="Oe5putzPKrWqVoaML0aL-11" source="Oe5putzPKrWqVoaML0aL-55" target="Oe5putzPKrWqVoaML0aL-43" edge="1">
          <mxGeometry relative="1" as="geometry">
            <Array as="points">
              <mxPoint x="740" y="17.5" />
              <mxPoint x="224" y="17.5" />
            </Array>
          </mxGeometry>
        </mxCell>
        <mxCell id="g2B-ImMqySsoavn_--9E-27" value="&lt;font style=&quot;font-size: 10px;&quot;&gt;问题反馈&lt;/font&gt;" style="text;html=1;strokeColor=none;fillColor=none;align=center;verticalAlign=middle;whiteSpace=wrap;rounded=0;" parent="Oe5putzPKrWqVoaML0aL-11" vertex="1">
          <mxGeometry x="680" y="-7.5" width="60" height="30" as="geometry" />
        </mxCell>
        <mxCell id="0lYBL_l8f7mqUzQvUuji-2" value="&lt;font style=&quot;font-size: 10px;&quot;&gt;每两周一次线上会议&lt;/font&gt;" style="text;html=1;strokeColor=none;fillColor=none;align=center;verticalAlign=middle;whiteSpace=wrap;rounded=0;" vertex="1" parent="Oe5putzPKrWqVoaML0aL-11">
          <mxGeometry x="25" y="100" width="100" height="30" as="geometry" />
        </mxCell>
        <mxCell id="Oe5putzPKrWqVoaML0aL-47" value="" style="edgeStyle=orthogonalEdgeStyle;rounded=0;orthogonalLoop=1;jettySize=auto;html=1;fontFamily=Helvetica;fontSize=12;fontColor=default;startSize=20;strokeColor=#3399FF;entryX=0.25;entryY=0;entryDx=0;entryDy=0;" parent="Oe5putzPKrWqVoaML0aL-9" source="Oe5putzPKrWqVoaML0aL-40" target="Oe5putzPKrWqVoaML0aL-43" edge="1">
          <mxGeometry relative="1" as="geometry">
            <mxPoint x="220" y="140" as="targetPoint" />
            <Array as="points">
              <mxPoint x="170" y="100" />
              <mxPoint x="205" y="100" />
            </Array>
          </mxGeometry>
        </mxCell>
        <mxCell id="Oe5putzPKrWqVoaML0aL-56" value="" style="edgeStyle=orthogonalEdgeStyle;rounded=0;orthogonalLoop=1;jettySize=auto;html=1;fontFamily=Helvetica;fontSize=12;fontColor=default;startSize=20;" parent="Oe5putzPKrWqVoaML0aL-9" source="Oe5putzPKrWqVoaML0aL-32" target="Oe5putzPKrWqVoaML0aL-55" edge="1">
          <mxGeometry relative="1" as="geometry">
            <Array as="points">
              <mxPoint x="780" y="210" />
              <mxPoint x="780" y="210" />
            </Array>
          </mxGeometry>
        </mxCell>
        <mxCell id="mqcDnKDgaOp0_VNbtNC6-2" style="edgeStyle=orthogonalEdgeStyle;rounded=0;orthogonalLoop=1;jettySize=auto;html=1;strokeColor=#3399FF;entryX=0.643;entryY=0.014;entryDx=0;entryDy=0;entryPerimeter=0;" parent="Oe5putzPKrWqVoaML0aL-9" source="mqcDnKDgaOp0_VNbtNC6-1" target="Oe5putzPKrWqVoaML0aL-44" edge="1">
          <mxGeometry relative="1" as="geometry">
            <mxPoint x="240" y="260" as="targetPoint" />
            <Array as="points">
              <mxPoint x="576" y="100" />
              <mxPoint x="290" y="100" />
              <mxPoint x="290" y="280" />
              <mxPoint x="251" y="280" />
            </Array>
          </mxGeometry>
        </mxCell>
        <mxCell id="mqcDnKDgaOp0_VNbtNC6-8" value="" style="edgeStyle=orthogonalEdgeStyle;rounded=0;orthogonalLoop=1;jettySize=auto;html=1;fontFamily=Helvetica;fontSize=12;fontColor=default;startSize=20;strokeColor=#3399FF;exitX=0.25;exitY=1;exitDx=0;exitDy=0;entryX=0.38;entryY=0.029;entryDx=0;entryDy=0;entryPerimeter=0;" parent="Oe5putzPKrWqVoaML0aL-9" source="Oe5putzPKrWqVoaML0aL-40" target="Oe5putzPKrWqVoaML0aL-44" edge="1">
          <mxGeometry relative="1" as="geometry">
            <mxPoint x="221" y="291" as="targetPoint" />
            <Array as="points">
              <mxPoint x="150" y="85" />
              <mxPoint x="150" y="260" />
              <mxPoint x="222" y="260" />
            </Array>
            <mxPoint x="180" y="90" as="sourcePoint" />
          </mxGeometry>
        </mxCell>
        <mxCell id="g2B-ImMqySsoavn_--9E-13" style="edgeStyle=orthogonalEdgeStyle;rounded=0;orthogonalLoop=1;jettySize=auto;html=1;entryX=0.75;entryY=1;entryDx=0;entryDy=0;" parent="Oe5putzPKrWqVoaML0aL-9" source="4Y5wyBopiuh3OcuyqN5k-2" target="g2B-ImMqySsoavn_--9E-4" edge="1">
          <mxGeometry relative="1" as="geometry">
            <Array as="points">
              <mxPoint x="345" y="270" />
              <mxPoint x="255" y="270" />
            </Array>
          </mxGeometry>
        </mxCell>
        <mxCell id="g2B-ImMqySsoavn_--9E-14" style="edgeStyle=orthogonalEdgeStyle;rounded=0;orthogonalLoop=1;jettySize=auto;html=1;entryX=0.5;entryY=0;entryDx=0;entryDy=0;" parent="Oe5putzPKrWqVoaML0aL-9" source="g2B-ImMqySsoavn_--9E-5" target="Oe5putzPKrWqVoaML0aL-18" edge="1">
          <mxGeometry relative="1" as="geometry" />
        </mxCell>
        <mxCell id="Oe5putzPKrWqVoaML0aL-12" value="决策组" style="swimlane;startSize=20;horizontal=0;html=1;fillColor=#ffe6cc;strokeColor=#d79b00;" parent="Oe5putzPKrWqVoaML0aL-9" vertex="1">
          <mxGeometry x="20" y="250" width="800" height="150" as="geometry" />
        </mxCell>
        <mxCell id="g2B-ImMqySsoavn_--9E-29" value="" style="edgeStyle=orthogonalEdgeStyle;rounded=0;orthogonalLoop=1;jettySize=auto;html=1;" parent="Oe5putzPKrWqVoaML0aL-12" source="g2B-ImMqySsoavn_--9E-20" target="Oe5putzPKrWqVoaML0aL-29" edge="1">
          <mxGeometry relative="1" as="geometry" />
        </mxCell>
        <mxCell id="g2B-ImMqySsoavn_--9E-20" value="" style="rounded=1;whiteSpace=wrap;html=1;dashed=1;dashPattern=1 1;fillColor=#b0e3e6;strokeColor=#0e8088;" parent="Oe5putzPKrWqVoaML0aL-12" vertex="1">
          <mxGeometry x="490" y="20" width="100" height="120" as="geometry" />
        </mxCell>
        <mxCell id="g2B-ImMqySsoavn_--9E-18" style="edgeStyle=orthogonalEdgeStyle;rounded=0;orthogonalLoop=1;jettySize=auto;html=1;entryX=0;entryY=0.5;entryDx=0;entryDy=0;" parent="Oe5putzPKrWqVoaML0aL-12" source="Oe5putzPKrWqVoaML0aL-18" target="g2B-ImMqySsoavn_--9E-17" edge="1">
          <mxGeometry relative="1" as="geometry">
            <Array as="points">
              <mxPoint x="480" y="90" />
              <mxPoint x="480" y="118" />
            </Array>
          </mxGeometry>
        </mxCell>
        <mxCell id="Oe5putzPKrWqVoaML0aL-18" value="提交规范提案" style="rounded=0;whiteSpace=wrap;html=1;" parent="Oe5putzPKrWqVoaML0aL-12" vertex="1">
          <mxGeometry x="410" y="50" width="50" height="50" as="geometry" />
        </mxCell>
        <mxCell id="Oe5putzPKrWqVoaML0aL-33" value="" style="edgeStyle=orthogonalEdgeStyle;rounded=0;orthogonalLoop=1;jettySize=auto;html=1;fontFamily=Helvetica;fontSize=12;fontColor=default;startSize=20;" parent="Oe5putzPKrWqVoaML0aL-12" source="Oe5putzPKrWqVoaML0aL-29" target="Oe5putzPKrWqVoaML0aL-32" edge="1">
          <mxGeometry relative="1" as="geometry" />
        </mxCell>
        <mxCell id="Oe5putzPKrWqVoaML0aL-35" value="否" style="edgeLabel;html=1;align=center;verticalAlign=middle;resizable=0;points=[];fontSize=12;fontFamily=Helvetica;fontColor=default;" parent="Oe5putzPKrWqVoaML0aL-33" vertex="1" connectable="0">
          <mxGeometry x="-0.3" y="1" relative="1" as="geometry">
            <mxPoint as="offset" />
          </mxGeometry>
        </mxCell>
        <mxCell id="Oe5putzPKrWqVoaML0aL-29" value="网信办&lt;br&gt;一票否决" style="rhombus;whiteSpace=wrap;html=1;fillColor=#f8cecc;strokeColor=#b85450;" parent="Oe5putzPKrWqVoaML0aL-12" vertex="1">
          <mxGeometry x="620" y="50" width="70" height="60" as="geometry" />
        </mxCell>
        <mxCell id="Oe5putzPKrWqVoaML0aL-32" value="决策结束" style="rounded=0;whiteSpace=wrap;html=1;" parent="Oe5putzPKrWqVoaML0aL-12" vertex="1">
          <mxGeometry x="730" y="55" width="60" height="50" as="geometry" />
        </mxCell>
        <mxCell id="Oe5putzPKrWqVoaML0aL-49" value="" style="edgeStyle=orthogonalEdgeStyle;rounded=0;orthogonalLoop=1;jettySize=auto;html=1;fontFamily=Helvetica;fontSize=12;fontColor=default;startSize=20;" parent="Oe5putzPKrWqVoaML0aL-12" source="Oe5putzPKrWqVoaML0aL-37" target="Oe5putzPKrWqVoaML0aL-44" edge="1">
          <mxGeometry relative="1" as="geometry">
            <Array as="points">
              <mxPoint x="160" y="70" />
              <mxPoint x="160" y="70" />
            </Array>
          </mxGeometry>
        </mxCell>
        <mxCell id="Oe5putzPKrWqVoaML0aL-37" value="三家社区各&lt;br&gt;推举一位代表&lt;br&gt;成立决策组" style="rounded=0;whiteSpace=wrap;html=1;" parent="Oe5putzPKrWqVoaML0aL-12" vertex="1">
          <mxGeometry x="30" y="50" width="100" height="50" as="geometry" />
        </mxCell>
        <mxCell id="4Y5wyBopiuh3OcuyqN5k-3" value="" style="edgeStyle=orthogonalEdgeStyle;rounded=0;orthogonalLoop=1;jettySize=auto;html=1;entryX=0;entryY=0.5;entryDx=0;entryDy=0;" parent="Oe5putzPKrWqVoaML0aL-12" source="Oe5putzPKrWqVoaML0aL-44" target="4Y5wyBopiuh3OcuyqN5k-2" edge="1">
          <mxGeometry relative="1" as="geometry">
            <Array as="points">
              <mxPoint x="280" y="75" />
              <mxPoint x="280" y="75" />
            </Array>
          </mxGeometry>
        </mxCell>
        <mxCell id="Oe5putzPKrWqVoaML0aL-44" value="&lt;div&gt;1 设定目标，定义责任边界&lt;/div&gt;2 讨论待定义的标准&lt;div&gt;3 领导宣贯工作&lt;/div&gt;" style="rounded=0;whiteSpace=wrap;html=1;align=left;" parent="Oe5putzPKrWqVoaML0aL-12" vertex="1">
          <mxGeometry x="160" y="50" width="110" height="70" as="geometry" />
        </mxCell>
        <mxCell id="4Y5wyBopiuh3OcuyqN5k-4" value="" style="edgeStyle=orthogonalEdgeStyle;rounded=0;orthogonalLoop=1;jettySize=auto;html=1;" parent="Oe5putzPKrWqVoaML0aL-12" source="4Y5wyBopiuh3OcuyqN5k-2" target="Oe5putzPKrWqVoaML0aL-18" edge="1">
          <mxGeometry relative="1" as="geometry" />
        </mxCell>
        <mxCell id="4Y5wyBopiuh3OcuyqN5k-2" value="分配调&lt;br&gt;研工作" style="rhombus;whiteSpace=wrap;html=1;" parent="Oe5putzPKrWqVoaML0aL-12" vertex="1">
          <mxGeometry x="290" y="45" width="70" height="60" as="geometry" />
        </mxCell>
        <mxCell id="g2B-ImMqySsoavn_--9E-10" value="&lt;font style=&quot;font-size: 10px;&quot;&gt;工作委托&lt;/font&gt;" style="text;html=1;strokeColor=none;fillColor=none;align=center;verticalAlign=middle;whiteSpace=wrap;rounded=0;" parent="Oe5putzPKrWqVoaML0aL-12" vertex="1">
          <mxGeometry x="270" width="60" height="30" as="geometry" />
        </mxCell>
        <mxCell id="g2B-ImMqySsoavn_--9E-11" value="&lt;span style=&quot;font-size: 10px;&quot;&gt;独立开展&lt;/span&gt;" style="text;html=1;strokeColor=none;fillColor=none;align=center;verticalAlign=middle;whiteSpace=wrap;rounded=0;" parent="Oe5putzPKrWqVoaML0aL-12" vertex="1">
          <mxGeometry x="350" y="50" width="60" height="30" as="geometry" />
        </mxCell>
        <mxCell id="g2B-ImMqySsoavn_--9E-12" value="&lt;font style=&quot;font-size: 10px;&quot;&gt;定义需求&lt;/font&gt;" style="text;html=1;strokeColor=none;fillColor=none;align=center;verticalAlign=middle;whiteSpace=wrap;rounded=0;" parent="Oe5putzPKrWqVoaML0aL-12" vertex="1">
          <mxGeometry x="710" width="60" height="30" as="geometry" />
        </mxCell>
        <mxCell id="g2B-ImMqySsoavn_--9E-16" value="评审审核&lt;br&gt;组分歧" style="rounded=0;whiteSpace=wrap;html=1;" parent="Oe5putzPKrWqVoaML0aL-12" vertex="1">
          <mxGeometry x="500" y="57.5" width="80" height="35" as="geometry" />
        </mxCell>
        <mxCell id="g2B-ImMqySsoavn_--9E-17" value="评审决策&lt;br&gt;规范提案" style="rounded=0;whiteSpace=wrap;html=1;" parent="Oe5putzPKrWqVoaML0aL-12" vertex="1">
          <mxGeometry x="500" y="100" width="80" height="35" as="geometry" />
        </mxCell>
        <mxCell id="g2B-ImMqySsoavn_--9E-22" value="&lt;font style=&quot;font-size: 10px;&quot;&gt;评审决策环节&lt;/font&gt;" style="text;html=1;strokeColor=none;fillColor=none;align=center;verticalAlign=middle;whiteSpace=wrap;rounded=0;" parent="Oe5putzPKrWqVoaML0aL-12" vertex="1">
          <mxGeometry x="505" y="22.5" width="70" height="30" as="geometry" />
        </mxCell>
        <mxCell id="g2B-ImMqySsoavn_--9E-30" style="edgeStyle=orthogonalEdgeStyle;rounded=0;orthogonalLoop=1;jettySize=auto;html=1;" parent="Oe5putzPKrWqVoaML0aL-12" source="Oe5putzPKrWqVoaML0aL-29" edge="1">
          <mxGeometry relative="1" as="geometry">
            <Array as="points">
              <mxPoint x="655" y="10" />
              <mxPoint x="541" y="10" />
            </Array>
            <mxPoint x="541" y="20" as="targetPoint" />
          </mxGeometry>
        </mxCell>
        <mxCell id="g2B-ImMqySsoavn_--9E-31" value="是" style="edgeLabel;html=1;align=center;verticalAlign=middle;resizable=0;points=[];" parent="g2B-ImMqySsoavn_--9E-30" vertex="1" connectable="0">
          <mxGeometry x="0.0208" y="2" relative="1" as="geometry">
            <mxPoint as="offset" />
          </mxGeometry>
        </mxCell>
        <mxCell id="0lYBL_l8f7mqUzQvUuji-1" value="&lt;font style=&quot;font-size: 10px;&quot;&gt;每月一次线下会议&lt;/font&gt;" style="text;html=1;strokeColor=none;fillColor=none;align=center;verticalAlign=middle;whiteSpace=wrap;rounded=0;" vertex="1" parent="Oe5putzPKrWqVoaML0aL-12">
          <mxGeometry x="20" y="120" width="100" height="30" as="geometry" />
        </mxCell>
        <mxCell id="g2B-ImMqySsoavn_--9E-24" style="edgeStyle=orthogonalEdgeStyle;rounded=0;orthogonalLoop=1;jettySize=auto;html=1;entryX=0;entryY=0.5;entryDx=0;entryDy=0;" parent="Oe5putzPKrWqVoaML0aL-9" source="Oe5putzPKrWqVoaML0aL-15" target="g2B-ImMqySsoavn_--9E-16" edge="1">
          <mxGeometry relative="1" as="geometry" />
        </mxCell>
        <mxCell id="g2B-ImMqySsoavn_--9E-25" value="是" style="edgeLabel;html=1;align=center;verticalAlign=middle;resizable=0;points=[];" parent="g2B-ImMqySsoavn_--9E-24" vertex="1" connectable="0">
          <mxGeometry x="-0.5786" y="3" relative="1" as="geometry">
            <mxPoint y="1" as="offset" />
          </mxGeometry>
        </mxCell>
      </root>
    </mxGraphModel>
  </diagram>
</mxfile>
