<mxfile host="app.diagrams.net" modified="2024-01-05T06:38:51.901Z" agent="Mozilla/5.0 (Macintosh; Intel Mac OS X 10_15_7) AppleWebKit/537.36 (KHTML, like Gecko) Chrome/120.0.0.0 Safari/537.36" etag="sCLoecPEhwB2XyKLK7L7" version="22.1.16" type="gitlab">
  <diagram name="Page-1" id="AxsZIhOJ4L4PgJMQlhmc">
    <mxGraphModel dx="2074" dy="1146" grid="1" gridSize="10" guides="1" tooltips="1" connect="1" arrows="1" fold="1" page="1" pageScale="1" pageWidth="850" pageHeight="1100" math="0" shadow="0">
      <root>
        <mxCell id="0" />
        <mxCell id="1" parent="0" />
        <mxCell id="toJiA7p68nuai6aYo8Wc-58" value="" style="rounded=1;whiteSpace=wrap;html=1;fillColor=#fff2cc;strokeColor=#d6b656;" parent="1" vertex="1">
          <mxGeometry x="90" y="90" width="420" height="370" as="geometry" />
        </mxCell>
        <mxCell id="toJiA7p68nuai6aYo8Wc-41" value="" style="edgeStyle=orthogonalEdgeStyle;rounded=0;orthogonalLoop=1;jettySize=auto;html=1;entryX=0.5;entryY=0;entryDx=0;entryDy=0;" parent="1" source="toJiA7p68nuai6aYo8Wc-35" target="toJiA7p68nuai6aYo8Wc-36" edge="1">
          <mxGeometry relative="1" as="geometry" />
        </mxCell>
        <mxCell id="toJiA7p68nuai6aYo8Wc-35" value="软硬件兼容性标准工作定义" style="whiteSpace=wrap;html=1;" parent="1" vertex="1">
          <mxGeometry x="220" y="120" width="160" height="40" as="geometry" />
        </mxCell>
        <mxCell id="toJiA7p68nuai6aYo8Wc-43" value="" style="edgeStyle=orthogonalEdgeStyle;rounded=0;orthogonalLoop=1;jettySize=auto;html=1;entryX=0.5;entryY=0;entryDx=0;entryDy=0;" parent="1" source="toJiA7p68nuai6aYo8Wc-36" target="toJiA7p68nuai6aYo8Wc-37" edge="1">
          <mxGeometry relative="1" as="geometry" />
        </mxCell>
        <mxCell id="toJiA7p68nuai6aYo8Wc-36" value="开展议题调研和提案工作" style="whiteSpace=wrap;html=1;" parent="1" vertex="1">
          <mxGeometry x="220" y="180" width="160" height="40" as="geometry" />
        </mxCell>
        <mxCell id="toJiA7p68nuai6aYo8Wc-54" value="" style="edgeStyle=orthogonalEdgeStyle;rounded=0;orthogonalLoop=1;jettySize=auto;html=1;entryX=0.5;entryY=0;entryDx=0;entryDy=0;" parent="1" source="toJiA7p68nuai6aYo8Wc-37" target="toJiA7p68nuai6aYo8Wc-48" edge="1">
          <mxGeometry relative="1" as="geometry" />
        </mxCell>
        <mxCell id="toJiA7p68nuai6aYo8Wc-37" value="投票决策标准提案" style="whiteSpace=wrap;html=1;" parent="1" vertex="1">
          <mxGeometry x="220" y="240" width="160" height="40" as="geometry" />
        </mxCell>
        <mxCell id="toJiA7p68nuai6aYo8Wc-40" value="决策意见下发工程工作组执行" style="whiteSpace=wrap;html=1;" parent="1" vertex="1">
          <mxGeometry x="130" y="400" width="160" height="40" as="geometry" />
        </mxCell>
        <mxCell id="toJiA7p68nuai6aYo8Wc-49" value="" style="edgeStyle=orthogonalEdgeStyle;rounded=0;orthogonalLoop=1;jettySize=auto;html=1;" parent="1" source="toJiA7p68nuai6aYo8Wc-48" target="toJiA7p68nuai6aYo8Wc-40" edge="1">
          <mxGeometry relative="1" as="geometry" />
        </mxCell>
        <mxCell id="toJiA7p68nuai6aYo8Wc-52" style="edgeStyle=orthogonalEdgeStyle;rounded=0;orthogonalLoop=1;jettySize=auto;html=1;entryX=1;entryY=0.25;entryDx=0;entryDy=0;" parent="1" source="toJiA7p68nuai6aYo8Wc-48" target="toJiA7p68nuai6aYo8Wc-36" edge="1">
          <mxGeometry relative="1" as="geometry">
            <Array as="points">
              <mxPoint x="410" y="330" />
              <mxPoint x="410" y="190" />
            </Array>
          </mxGeometry>
        </mxCell>
        <mxCell id="toJiA7p68nuai6aYo8Wc-48" value="网信办&lt;br&gt;可一票否决" style="rhombus;whiteSpace=wrap;html=1;fillColor=#f8cecc;strokeColor=#b85450;" parent="1" vertex="1">
          <mxGeometry x="220" y="300" width="160" height="60" as="geometry" />
        </mxCell>
        <mxCell id="toJiA7p68nuai6aYo8Wc-51" value="通过" style="text;html=1;strokeColor=none;fillColor=none;align=center;verticalAlign=middle;whiteSpace=wrap;rounded=0;" parent="1" vertex="1">
          <mxGeometry x="240" y="350" width="60" height="30" as="geometry" />
        </mxCell>
        <mxCell id="toJiA7p68nuai6aYo8Wc-53" value="不通过" style="text;html=1;strokeColor=none;fillColor=none;align=center;verticalAlign=middle;whiteSpace=wrap;rounded=0;" parent="1" vertex="1">
          <mxGeometry x="410" y="240" width="60" height="30" as="geometry" />
        </mxCell>
        <mxCell id="toJiA7p68nuai6aYo8Wc-55" value="厂商参与验证工作" style="whiteSpace=wrap;html=1;" parent="1" vertex="1">
          <mxGeometry x="310" y="400" width="160" height="40" as="geometry" />
        </mxCell>
        <mxCell id="toJiA7p68nuai6aYo8Wc-56" value="" style="edgeStyle=orthogonalEdgeStyle;rounded=0;orthogonalLoop=1;jettySize=auto;html=1;exitX=1;exitY=0.75;exitDx=0;exitDy=0;" parent="1" source="toJiA7p68nuai6aYo8Wc-51" edge="1">
          <mxGeometry relative="1" as="geometry">
            <mxPoint x="480" y="360" as="sourcePoint" />
            <mxPoint x="390" y="400" as="targetPoint" />
            <Array as="points">
              <mxPoint x="300" y="380" />
              <mxPoint x="391" y="380" />
            </Array>
          </mxGeometry>
        </mxCell>
        <mxCell id="toJiA7p68nuai6aYo8Wc-59" value="&lt;b&gt;&lt;font style=&quot;font-size: 15px;&quot;&gt;标准工作组&lt;/font&gt;&lt;/b&gt;" style="text;html=1;strokeColor=none;fillColor=none;align=center;verticalAlign=middle;whiteSpace=wrap;rounded=0;" parent="1" vertex="1">
          <mxGeometry x="100" y="125" width="90" height="30" as="geometry" />
        </mxCell>
      </root>
    </mxGraphModel>
  </diagram>
</mxfile>
