<mxfile host="app.diagrams.net" modified="2024-01-05T06:38:18.506Z" agent="Mozilla/5.0 (Macintosh; Intel Mac OS X 10_15_7) AppleWebKit/537.36 (KHTML, like Gecko) Chrome/120.0.0.0 Safari/537.36" etag="lsifdmIaZAPo1vMDA3_U" version="22.1.16" type="gitlab">
  <diagram name="Page-1" id="ooHozkcTKX_XwEgsNKdS">
    <mxGraphModel dx="2074" dy="1146" grid="1" gridSize="10" guides="1" tooltips="1" connect="1" arrows="1" fold="1" page="1" pageScale="1" pageWidth="850" pageHeight="1100" math="0" shadow="0">
      <root>
        <mxCell id="0" />
        <mxCell id="1" parent="0" />
        <mxCell id="58f5D3RvVkbHBQSGqpWl-1" value="" style="rounded=1;whiteSpace=wrap;html=1;fillColor=#dae8fc;strokeColor=#6c8ebf;" vertex="1" parent="1">
          <mxGeometry x="120" y="80" width="380" height="260" as="geometry" />
        </mxCell>
        <mxCell id="58f5D3RvVkbHBQSGqpWl-2" value="" style="edgeStyle=orthogonalEdgeStyle;rounded=0;orthogonalLoop=1;jettySize=auto;html=1;entryX=0.5;entryY=0;entryDx=0;entryDy=0;" edge="1" parent="1" source="58f5D3RvVkbHBQSGqpWl-3" target="58f5D3RvVkbHBQSGqpWl-5">
          <mxGeometry relative="1" as="geometry" />
        </mxCell>
        <mxCell id="58f5D3RvVkbHBQSGqpWl-3" value="参与 MiniOS 的原型验证" style="whiteSpace=wrap;html=1;" vertex="1" parent="1">
          <mxGeometry x="220" y="120" width="160" height="40" as="geometry" />
        </mxCell>
        <mxCell id="58f5D3RvVkbHBQSGqpWl-20" value="" style="edgeStyle=orthogonalEdgeStyle;rounded=0;orthogonalLoop=1;jettySize=auto;html=1;" edge="1" parent="1" source="58f5D3RvVkbHBQSGqpWl-5" target="58f5D3RvVkbHBQSGqpWl-19">
          <mxGeometry relative="1" as="geometry" />
        </mxCell>
        <mxCell id="58f5D3RvVkbHBQSGqpWl-5" value="正负案例收集" style="whiteSpace=wrap;html=1;" vertex="1" parent="1">
          <mxGeometry x="140" y="210" width="160" height="40" as="geometry" />
        </mxCell>
        <mxCell id="58f5D3RvVkbHBQSGqpWl-13" value="&lt;b&gt;&lt;font style=&quot;font-size: 15px;&quot;&gt;用户组&lt;/font&gt;&lt;/b&gt;" style="text;html=1;strokeColor=none;fillColor=none;align=center;verticalAlign=middle;whiteSpace=wrap;rounded=0;" vertex="1" parent="1">
          <mxGeometry x="120" y="100" width="90" height="30" as="geometry" />
        </mxCell>
        <mxCell id="58f5D3RvVkbHBQSGqpWl-22" value="" style="edgeStyle=orthogonalEdgeStyle;rounded=0;orthogonalLoop=1;jettySize=auto;html=1;" edge="1" parent="1" source="58f5D3RvVkbHBQSGqpWl-17" target="58f5D3RvVkbHBQSGqpWl-21">
          <mxGeometry relative="1" as="geometry" />
        </mxCell>
        <mxCell id="58f5D3RvVkbHBQSGqpWl-17" value="MiniOS 验证兼容性问题" style="whiteSpace=wrap;html=1;" vertex="1" parent="1">
          <mxGeometry x="320" y="210" width="160" height="40" as="geometry" />
        </mxCell>
        <mxCell id="58f5D3RvVkbHBQSGqpWl-18" value="" style="edgeStyle=orthogonalEdgeStyle;rounded=0;orthogonalLoop=1;jettySize=auto;html=1;entryX=0.5;entryY=0;entryDx=0;entryDy=0;exitX=0.5;exitY=1;exitDx=0;exitDy=0;" edge="1" parent="1" source="58f5D3RvVkbHBQSGqpWl-3" target="58f5D3RvVkbHBQSGqpWl-17">
          <mxGeometry relative="1" as="geometry">
            <mxPoint x="310" y="170" as="sourcePoint" />
            <mxPoint x="230" y="220" as="targetPoint" />
          </mxGeometry>
        </mxCell>
        <mxCell id="58f5D3RvVkbHBQSGqpWl-19" value="反馈标准工作组" style="whiteSpace=wrap;html=1;" vertex="1" parent="1">
          <mxGeometry x="140" y="280" width="160" height="40" as="geometry" />
        </mxCell>
        <mxCell id="58f5D3RvVkbHBQSGqpWl-21" value="反馈工程维护组" style="whiteSpace=wrap;html=1;" vertex="1" parent="1">
          <mxGeometry x="320" y="280" width="160" height="40" as="geometry" />
        </mxCell>
      </root>
    </mxGraphModel>
  </diagram>
</mxfile>
