<mxfile host="app.diagrams.net" modified="2023-04-18T13:16:11.061Z" agent="Mozilla/5.0 (Macintosh; Intel Mac OS X 10_15_7) AppleWebKit/537.36 (KHTML, like Gecko) Chrome/112.0.0.0 Safari/537.36" etag="SKwKBY6NIOKIr4Q2T6-7" version="21.1.8" type="gitlab">
  <diagram id="3228e29e-7158-1315-38df-8450db1d8a1d" name="Page-1">
    <mxGraphModel dx="1194" dy="690" grid="1" gridSize="10" guides="1" tooltips="1" connect="1" arrows="1" fold="1" page="1" pageScale="1" pageWidth="1169" pageHeight="827" background="none" math="0" shadow="0">
      <root>
        <mxCell id="0" />
        <mxCell id="1" parent="0" />
        <mxCell id="21531" value="&lt;div class=&quot;lake-content&quot;&gt;&lt;strong&gt;&lt;font style=&quot;font-size: 36px;&quot;&gt;包开发工具&lt;/font&gt;&lt;/strong&gt;&lt;/div&gt;" style="ellipse;fillColor=#F08705;opacity=60;strokeColor=none;html=1;fontColor=#FFFFFF;" parent="1" vertex="1">
          <mxGeometry x="510" y="214.25" width="289.5" height="278.5" as="geometry" />
        </mxCell>
        <mxCell id="21532" value="&lt;div class=&quot;lake-content&quot;&gt;&lt;strong&gt;&lt;font style=&quot;font-size: 36px;&quot;&gt;&lt;font style=&quot;&quot;&gt;预定义的文件&lt;/font&gt;格式&lt;/font&gt;&lt;/strong&gt;&lt;/div&gt;" style="ellipse;fillColor=#12AAB5;opacity=60;strokeColor=none;html=1;fontColor=#FFFFFF;" parent="1" vertex="1">
          <mxGeometry x="380" y="18.5" width="299.5" height="311.5" as="geometry" />
        </mxCell>
        <mxCell id="21533" value="" style="ellipse;fillColor=#e85642;opacity=60;strokeColor=none;html=1;fontColor=#FFFFFF;" parent="1" vertex="1">
          <mxGeometry x="630" y="18.5" width="309.5" height="321.5" as="geometry" />
        </mxCell>
        <mxCell id="21535" value="&lt;div class=&quot;lake-content&quot;&gt;&lt;strong&gt;&lt;font style=&quot;font-size: 36px;&quot;&gt;包用户工具&lt;/font&gt;&lt;/strong&gt;&lt;/div&gt;" style="text;fontSize=24;align=center;verticalAlign=middle;html=1;fontColor=#FFFFFF;" parent="1" vertex="1">
          <mxGeometry x="700" y="144.25" width="190" height="70" as="geometry" />
        </mxCell>
      </root>
    </mxGraphModel>
  </diagram>
</mxfile>
